CRITICAL - 2020-11-08 07:29:38 --> Undefined variable: title
#0 /Users/antti/Documents/OAMK/todo/app/Views/templates/header.php(11): CodeIgniter\Debug\Exceptions->errorHandler(8, 'Undefined varia...', '/Users/antti/Do...', 11, Array)
#1 /Users/antti/Documents/OAMK/todo/system/View/View.php(246): include('/Users/antti/Do...')
#2 /Users/antti/Documents/OAMK/todo/system/Common.php(1119): CodeIgniter\View\View->render('templates/heade...', Array, true)
#3 /Users/antti/Documents/OAMK/todo/app/Controllers/Todo.php(13): view('templates/heade...')
#4 /Users/antti/Documents/OAMK/todo/system/CodeIgniter.php(918): App\Controllers\Todo->index()
#5 /Users/antti/Documents/OAMK/todo/system/CodeIgniter.php(404): CodeIgniter\CodeIgniter->runController(Object(App\Controllers\Todo))
#6 /Users/antti/Documents/OAMK/todo/system/CodeIgniter.php(312): CodeIgniter\CodeIgniter->handleRequest(NULL, Object(Config\Cache), false)
#7 /Users/antti/Documents/OAMK/todo/public/index.php(45): CodeIgniter\CodeIgniter->run()
#8 /Users/antti/Documents/OAMK/todo/system/Commands/Server/rewrite.php(34): require_once('/Users/antti/Do...')
#9 {main}
CRITICAL - 2020-11-08 07:30:41 --> Undefined variable: title
#0 /Users/antti/Documents/OAMK/todo/app/Views/templates/header.php(11): CodeIgniter\Debug\Exceptions->errorHandler(8, 'Undefined varia...', '/Users/antti/Do...', 11, Array)
#1 /Users/antti/Documents/OAMK/todo/system/View/View.php(246): include('/Users/antti/Do...')
#2 /Users/antti/Documents/OAMK/todo/system/Common.php(1119): CodeIgniter\View\View->render('templates/heade...', Array, true)
#3 /Users/antti/Documents/OAMK/todo/app/Controllers/Todo.php(13): view('templates/heade...')
#4 /Users/antti/Documents/OAMK/todo/system/CodeIgniter.php(918): App\Controllers\Todo->index()
#5 /Users/antti/Documents/OAMK/todo/system/CodeIgniter.php(404): CodeIgniter\CodeIgniter->runController(Object(App\Controllers\Todo))
#6 /Users/antti/Documents/OAMK/todo/system/CodeIgniter.php(312): CodeIgniter\CodeIgniter->handleRequest(NULL, Object(Config\Cache), false)
#7 /Users/antti/Documents/OAMK/todo/public/index.php(45): CodeIgniter\CodeIgniter->run()
#8 /Users/antti/Documents/OAMK/todo/system/Commands/Server/rewrite.php(34): require_once('/Users/antti/Do...')
#9 {main}
CRITICAL - 2020-11-08 07:30:41 --> Undefined variable: title
#0 /Users/antti/Documents/OAMK/todo/app/Views/templates/header.php(11): CodeIgniter\Debug\Exceptions->errorHandler(8, 'Undefined varia...', '/Users/antti/Do...', 11, Array)
#1 /Users/antti/Documents/OAMK/todo/system/View/View.php(246): include('/Users/antti/Do...')
#2 /Users/antti/Documents/OAMK/todo/system/Common.php(1119): CodeIgniter\View\View->render('templates/heade...', Array, true)
#3 /Users/antti/Documents/OAMK/todo/app/Controllers/Todo.php(13): view('templates/heade...')
#4 /Users/antti/Documents/OAMK/todo/system/CodeIgniter.php(918): App\Controllers\Todo->index()
#5 /Users/antti/Documents/OAMK/todo/system/CodeIgniter.php(404): CodeIgniter\CodeIgniter->runController(Object(App\Controllers\Todo))
#6 /Users/antti/Documents/OAMK/todo/system/CodeIgniter.php(312): CodeIgniter\CodeIgniter->handleRequest(NULL, Object(Config\Cache), false)
#7 /Users/antti/Documents/OAMK/todo/public/index.php(45): CodeIgniter\CodeIgniter->run()
#8 /Users/antti/Documents/OAMK/todo/system/Commands/Server/rewrite.php(34): require_once('/Users/antti/Do...')
#9 {main}
CRITICAL - 2020-11-08 07:30:41 --> Undefined variable: title
#0 /Users/antti/Documents/OAMK/todo/app/Views/templates/header.php(11): CodeIgniter\Debug\Exceptions->errorHandler(8, 'Undefined varia...', '/Users/antti/Do...', 11, Array)
#1 /Users/antti/Documents/OAMK/todo/system/View/View.php(246): include('/Users/antti/Do...')
#2 /Users/antti/Documents/OAMK/todo/system/Common.php(1119): CodeIgniter\View\View->render('templates/heade...', Array, true)
#3 /Users/antti/Documents/OAMK/todo/app/Controllers/Todo.php(13): view('templates/heade...')
#4 /Users/antti/Documents/OAMK/todo/system/CodeIgniter.php(918): App\Controllers\Todo->index()
#5 /Users/antti/Documents/OAMK/todo/system/CodeIgniter.php(404): CodeIgniter\CodeIgniter->runController(Object(App\Controllers\Todo))
#6 /Users/antti/Documents/OAMK/todo/system/CodeIgniter.php(312): CodeIgniter\CodeIgniter->handleRequest(NULL, Object(Config\Cache), false)
#7 /Users/antti/Documents/OAMK/todo/public/index.php(45): CodeIgniter\CodeIgniter->run()
#8 /Users/antti/Documents/OAMK/todo/system/Commands/Server/rewrite.php(34): require_once('/Users/antti/Do...')
#9 {main}
CRITICAL - 2020-11-08 07:30:41 --> Undefined variable: title
#0 /Users/antti/Documents/OAMK/todo/app/Views/templates/header.php(11): CodeIgniter\Debug\Exceptions->errorHandler(8, 'Undefined varia...', '/Users/antti/Do...', 11, Array)
#1 /Users/antti/Documents/OAMK/todo/system/View/View.php(246): include('/Users/antti/Do...')
#2 /Users/antti/Documents/OAMK/todo/system/Common.php(1119): CodeIgniter\View\View->render('templates/heade...', Array, true)
#3 /Users/antti/Documents/OAMK/todo/app/Controllers/Todo.php(13): view('templates/heade...')
#4 /Users/antti/Documents/OAMK/todo/system/CodeIgniter.php(918): App\Controllers\Todo->index()
#5 /Users/antti/Documents/OAMK/todo/system/CodeIgniter.php(404): CodeIgniter\CodeIgniter->runController(Object(App\Controllers\Todo))
#6 /Users/antti/Documents/OAMK/todo/system/CodeIgniter.php(312): CodeIgniter\CodeIgniter->handleRequest(NULL, Object(Config\Cache), false)
#7 /Users/antti/Documents/OAMK/todo/public/index.php(45): CodeIgniter\CodeIgniter->run()
#8 /Users/antti/Documents/OAMK/todo/system/Commands/Server/rewrite.php(34): require_once('/Users/antti/Do...')
#9 {main}
CRITICAL - 2020-11-08 07:30:42 --> Undefined variable: title
#0 /Users/antti/Documents/OAMK/todo/app/Views/templates/header.php(11): CodeIgniter\Debug\Exceptions->errorHandler(8, 'Undefined varia...', '/Users/antti/Do...', 11, Array)
#1 /Users/antti/Documents/OAMK/todo/system/View/View.php(246): include('/Users/antti/Do...')
#2 /Users/antti/Documents/OAMK/todo/system/Common.php(1119): CodeIgniter\View\View->render('templates/heade...', Array, true)
#3 /Users/antti/Documents/OAMK/todo/app/Controllers/Todo.php(13): view('templates/heade...')
#4 /Users/antti/Documents/OAMK/todo/system/CodeIgniter.php(918): App\Controllers\Todo->index()
#5 /Users/antti/Documents/OAMK/todo/system/CodeIgniter.php(404): CodeIgniter\CodeIgniter->runController(Object(App\Controllers\Todo))
#6 /Users/antti/Documents/OAMK/todo/system/CodeIgniter.php(312): CodeIgniter\CodeIgniter->handleRequest(NULL, Object(Config\Cache), false)
#7 /Users/antti/Documents/OAMK/todo/public/index.php(45): CodeIgniter\CodeIgniter->run()
#8 /Users/antti/Documents/OAMK/todo/system/Commands/Server/rewrite.php(34): require_once('/Users/antti/Do...')
#9 {main}
CRITICAL - 2020-11-08 07:30:42 --> Undefined variable: title
#0 /Users/antti/Documents/OAMK/todo/app/Views/templates/header.php(11): CodeIgniter\Debug\Exceptions->errorHandler(8, 'Undefined varia...', '/Users/antti/Do...', 11, Array)
#1 /Users/antti/Documents/OAMK/todo/system/View/View.php(246): include('/Users/antti/Do...')
#2 /Users/antti/Documents/OAMK/todo/system/Common.php(1119): CodeIgniter\View\View->render('templates/heade...', Array, true)
#3 /Users/antti/Documents/OAMK/todo/app/Controllers/Todo.php(13): view('templates/heade...')
#4 /Users/antti/Documents/OAMK/todo/system/CodeIgniter.php(918): App\Controllers\Todo->index()
#5 /Users/antti/Documents/OAMK/todo/system/CodeIgniter.php(404): CodeIgniter\CodeIgniter->runController(Object(App\Controllers\Todo))
#6 /Users/antti/Documents/OAMK/todo/system/CodeIgniter.php(312): CodeIgniter\CodeIgniter->handleRequest(NULL, Object(Config\Cache), false)
#7 /Users/antti/Documents/OAMK/todo/public/index.php(45): CodeIgniter\CodeIgniter->run()
#8 /Users/antti/Documents/OAMK/todo/system/Commands/Server/rewrite.php(34): require_once('/Users/antti/Do...')
#9 {main}
CRITICAL - 2020-11-08 07:30:53 --> Undefined variable: title
#0 /Users/antti/Documents/OAMK/todo/app/Views/templates/header.php(11): CodeIgniter\Debug\Exceptions->errorHandler(8, 'Undefined varia...', '/Users/antti/Do...', 11, Array)
#1 /Users/antti/Documents/OAMK/todo/system/View/View.php(246): include('/Users/antti/Do...')
#2 /Users/antti/Documents/OAMK/todo/system/Common.php(1119): CodeIgniter\View\View->render('templates/heade...', Array, true)
#3 /Users/antti/Documents/OAMK/todo/app/Controllers/Todo.php(13): view('templates/heade...')
#4 /Users/antti/Documents/OAMK/todo/system/CodeIgniter.php(918): App\Controllers\Todo->index()
#5 /Users/antti/Documents/OAMK/todo/system/CodeIgniter.php(404): CodeIgniter\CodeIgniter->runController(Object(App\Controllers\Todo))
#6 /Users/antti/Documents/OAMK/todo/system/CodeIgniter.php(312): CodeIgniter\CodeIgniter->handleRequest(NULL, Object(Config\Cache), false)
#7 /Users/antti/Documents/OAMK/todo/public/index.php(45): CodeIgniter\CodeIgniter->run()
#8 /Users/antti/Documents/OAMK/todo/system/Commands/Server/rewrite.php(34): require_once('/Users/antti/Do...')
#9 {main}
CRITICAL - 2020-11-08 07:30:53 --> Undefined variable: title
#0 /Users/antti/Documents/OAMK/todo/app/Views/templates/header.php(11): CodeIgniter\Debug\Exceptions->errorHandler(8, 'Undefined varia...', '/Users/antti/Do...', 11, Array)
#1 /Users/antti/Documents/OAMK/todo/system/View/View.php(246): include('/Users/antti/Do...')
#2 /Users/antti/Documents/OAMK/todo/system/Common.php(1119): CodeIgniter\View\View->render('templates/heade...', Array, true)
#3 /Users/antti/Documents/OAMK/todo/app/Controllers/Todo.php(13): view('templates/heade...')
#4 /Users/antti/Documents/OAMK/todo/system/CodeIgniter.php(918): App\Controllers\Todo->index()
#5 /Users/antti/Documents/OAMK/todo/system/CodeIgniter.php(404): CodeIgniter\CodeIgniter->runController(Object(App\Controllers\Todo))
#6 /Users/antti/Documents/OAMK/todo/system/CodeIgniter.php(312): CodeIgniter\CodeIgniter->handleRequest(NULL, Object(Config\Cache), false)
#7 /Users/antti/Documents/OAMK/todo/public/index.php(45): CodeIgniter\CodeIgniter->run()
#8 /Users/antti/Documents/OAMK/todo/system/Commands/Server/rewrite.php(34): require_once('/Users/antti/Do...')
#9 {main}
CRITICAL - 2020-11-08 07:31:04 --> Undefined variable: title
#0 /Users/antti/Documents/OAMK/todo/app/Views/templates/header.php(11): CodeIgniter\Debug\Exceptions->errorHandler(8, 'Undefined varia...', '/Users/antti/Do...', 11, Array)
#1 /Users/antti/Documents/OAMK/todo/system/View/View.php(246): include('/Users/antti/Do...')
#2 /Users/antti/Documents/OAMK/todo/system/Common.php(1119): CodeIgniter\View\View->render('templates/heade...', Array, true)
#3 /Users/antti/Documents/OAMK/todo/app/Controllers/Todo.php(13): view('templates/heade...')
#4 /Users/antti/Documents/OAMK/todo/system/CodeIgniter.php(918): App\Controllers\Todo->index()
#5 /Users/antti/Documents/OAMK/todo/system/CodeIgniter.php(404): CodeIgniter\CodeIgniter->runController(Object(App\Controllers\Todo))
#6 /Users/antti/Documents/OAMK/todo/system/CodeIgniter.php(312): CodeIgniter\CodeIgniter->handleRequest(NULL, Object(Config\Cache), false)
#7 /Users/antti/Documents/OAMK/todo/public/index.php(45): CodeIgniter\CodeIgniter->run()
#8 /Users/antti/Documents/OAMK/todo/system/Commands/Server/rewrite.php(34): require_once('/Users/antti/Do...')
#9 {main}
CRITICAL - 2020-11-08 07:31:25 --> Undefined variable: title
#0 /Users/antti/Documents/OAMK/todo/app/Views/templates/header.php(11): CodeIgniter\Debug\Exceptions->errorHandler(8, 'Undefined varia...', '/Users/antti/Do...', 11, Array)
#1 /Users/antti/Documents/OAMK/todo/system/View/View.php(246): include('/Users/antti/Do...')
#2 /Users/antti/Documents/OAMK/todo/system/Common.php(1119): CodeIgniter\View\View->render('templates/heade...', Array, true)
#3 /Users/antti/Documents/OAMK/todo/app/Controllers/Todo.php(13): view('templates/heade...')
#4 /Users/antti/Documents/OAMK/todo/system/CodeIgniter.php(918): App\Controllers\Todo->index()
#5 /Users/antti/Documents/OAMK/todo/system/CodeIgniter.php(404): CodeIgniter\CodeIgniter->runController(Object(App\Controllers\Todo))
#6 /Users/antti/Documents/OAMK/todo/system/CodeIgniter.php(312): CodeIgniter\CodeIgniter->handleRequest(NULL, Object(Config\Cache), false)
#7 /Users/antti/Documents/OAMK/todo/public/index.php(45): CodeIgniter\CodeIgniter->run()
#8 /Users/antti/Documents/OAMK/todo/system/Commands/Server/rewrite.php(34): require_once('/Users/antti/Do...')
#9 {main}
CRITICAL - 2020-11-08 12:34:52 --> Undefined variable: title
#0 /Users/antti/Documents/OAMK/todo/app/Views/templates/header.php(11): CodeIgniter\Debug\Exceptions->errorHandler(8, 'Undefined varia...', '/Users/antti/Do...', 11, Array)
#1 /Users/antti/Documents/OAMK/todo/system/View/View.php(246): include('/Users/antti/Do...')
#2 /Users/antti/Documents/OAMK/todo/system/Common.php(1119): CodeIgniter\View\View->render('templates/heade...', Array, true)
#3 /Users/antti/Documents/OAMK/todo/app/Controllers/Todo.php(13): view('templates/heade...')
#4 /Users/antti/Documents/OAMK/todo/system/CodeIgniter.php(918): App\Controllers\Todo->index()
#5 /Users/antti/Documents/OAMK/todo/system/CodeIgniter.php(404): CodeIgniter\CodeIgniter->runController(Object(App\Controllers\Todo))
#6 /Users/antti/Documents/OAMK/todo/system/CodeIgniter.php(312): CodeIgniter\CodeIgniter->handleRequest(NULL, Object(Config\Cache), false)
#7 /Users/antti/Documents/OAMK/todo/public/index.php(45): CodeIgniter\CodeIgniter->run()
#8 /Users/antti/Documents/OAMK/todo/system/Commands/Server/rewrite.php(34): require_once('/Users/antti/Do...')
#9 {main}
CRITICAL - 2020-11-08 12:35:14 --> Undefined variable: title
#0 /Users/antti/Documents/OAMK/todo/app/Views/templates/header.php(11): CodeIgniter\Debug\Exceptions->errorHandler(8, 'Undefined varia...', '/Users/antti/Do...', 11, Array)
#1 /Users/antti/Documents/OAMK/todo/system/View/View.php(246): include('/Users/antti/Do...')
#2 /Users/antti/Documents/OAMK/todo/system/Common.php(1119): CodeIgniter\View\View->render('templates/heade...', Array, true)
#3 /Users/antti/Documents/OAMK/todo/app/Controllers/Todo.php(13): view('templates/heade...')
#4 /Users/antti/Documents/OAMK/todo/system/CodeIgniter.php(918): App\Controllers\Todo->index()
#5 /Users/antti/Documents/OAMK/todo/system/CodeIgniter.php(404): CodeIgniter\CodeIgniter->runController(Object(App\Controllers\Todo))
#6 /Users/antti/Documents/OAMK/todo/system/CodeIgniter.php(312): CodeIgniter\CodeIgniter->handleRequest(NULL, Object(Config\Cache), false)
#7 /Users/antti/Documents/OAMK/todo/public/index.php(45): CodeIgniter\CodeIgniter->run()
#8 /Users/antti/Documents/OAMK/todo/system/Commands/Server/rewrite.php(34): require_once('/Users/antti/Do...')
#9 {main}
